{
  "EDITOR_STATE": {
    "allProjectFiles": {
      "b603a64c-548b-4c95-bd9a-56456e96dc94": {
        "id": "b603a64c-548b-4c95-bd9a-56456e96dc94",
        "parent": null,
        "name": "TestloadingProject3",
        "type": "DIRECTORY",
        "isDirectory": true,
        "children": [
          "ccd3e785-ae69-412e-bb4a-eeae4184bbe1"
        ],
        "isRemovable": false,
        "filePath": "TestloadingProject3"
      },
      "ccd3e785-ae69-412e-bb4a-eeae4184bbe1": {
        "id": "ccd3e785-ae69-412e-bb4a-eeae4184bbe1",
        "parent": "b603a64c-548b-4c95-bd9a-56456e96dc94",
        "name": "lambda.js",
        "type": "JS_LAMBDA",
        "isDirectory": false,
        "children": [],
        "isRemovable": true,
        "filePath": "TestloadingProject3/lambda.js",
        "code": "exports.handler = function(event, context, callback) {\n    \n    callback(null, {\"message\": \"Successfully executed\"});\n}",
        "config": {
          "runtime": "nodejs8.10",
          "handler": "handler",
          "timeout": 60,
          "memory": 128,
          "layers": []
        },
        "triggers": []
      }
    },
    "deletedFiles": [],
    "rootNode": "b603a64c-548b-4c95-bd9a-56456e96dc94",
    "openFiles": [
      "ccd3e785-ae69-412e-bb4a-eeae4184bbe1"
    ],
    "currentFileId": "ccd3e785-ae69-412e-bb4a-eeae4184bbe1",
    "resources": {},
    "customTemplate": {
      "dialect": null,
      "definitions": {}
    },
    "envVariables": [
      {
        "lambdaId": "all",
        "varKey": "SIGMA_AWS_ACC_ID",
        "varValue": null,
        "shouldPersist": false,
        "displayOnly": false,
        "editable": false
      }
    ],
    "packageJSON": {
      "dependencies": {}
    }
  },
  "PROJECT_META": {
    "projectName": "TestloadingProject3",
    "projectDescription": "",
    "projectVersion": "1.0.0",
    "projectRegion": "us-east-1",
    "platform": "AWS",
    "platformRegions": {},
    "lastSave": 1558691558859
  },
  "VCS_STATE": {
    "provider": "BitBucket",
    "repo": {
      "name": "TestloadingProject3",
      "url": "https://bitbucket.org/KumudikaR/testloading-project-3-changename"
    }
  }
}